/************************************************/
/* Created by: Luca Pelorosso                   */
/* Created: 2022-11-12                          */
/* Modified by: Luca Pelorosso                  */
/* Modified: 2022-11-12                         */
/* Definition: Step Lancio scrip sql            */
/************************************************/

Documento per il lancio degli script sql per la creazione del database 
e per il popolamento dei primi dati di configurazione